c:\users\paulo\documents\cg\tp_fase_3\motor\build\cmakefiles\generate.stamp
c:\users\paulo\documents\cg\tp_fase_3\motor\build\win32\debug\zero_check\zero_check.tlog\custombuild.command.1.tlog
c:\users\paulo\documents\cg\tp_fase_3\motor\build\win32\debug\zero_check\zero_check.tlog\custombuild.read.1.tlog
c:\users\paulo\documents\cg\tp_fase_3\motor\build\win32\debug\zero_check\zero_check.tlog\custombuild.write.1.tlog
